{
    "version": "7.1.0-20",
    "description": "Create, edit, compose, and convert 200+ of bitmap images formats.",
    "homepage": "https://imagemagick.org/",
    "license": "ImageMagick",
    "architecture": {
        "64bit": {
            "url": "https://download.imagemagick.org/ImageMagick/download/binaries/ImageMagick-7.1.0-20-Q16-HDRI-x64-dll.exe",
            "hash": "d17933d5e52ccbc671669a338435402eafd3d9ebfbf1bc99aa9ce35aa4a753f8"
        },
        "32bit": {
            "url": "https://download.imagemagick.org/ImageMagick/download/binaries/ImageMagick-7.1.0-20-Q16-HDRI-x86-dll.exe",
            "hash": "d193ec21b6e22f503eae47aca34f3277570153ceafc6eb1d475cf70a52acfb5a"
        }
    },
    "innosetup": true,
    "env_set": {
        "MAGICK_HOME": "$dir",
        "MAGICK_CODER_MODULE_PATH": "$dir\\modules\\coders"
    },
    "env_add_path": ".",
    "post_install": "Rename-Item $dir\\ffmpeg.exe $dir\\ffmpeg.exe.old",
    "notes": [
        "- The bundled ffmpeg has been renamed to 'ffmpeg.exe.old' to prevent conflict with a standalone ffmpeg installation - if you need it for ImageMagick tools, rename it back to 'ffmpeg.exe'.",
        "- 'convert.exe' is deprecated in v7 (it also conflicts with the builtin Windows 'convert' utility). Use 'magick convert ...' instead."
    ],
    "checkver": {
        "url": "https://download.imagemagick.org/ImageMagick/download/binaries/?C=N;O=D",
        "regex": "ImageMagick-([\\d.-]+)-Q16-HDRI-x64-dll\\.exe\\.asc"
    },
    "autoupdate": {
        "architecture": {
            "64bit": {
                "url": "https://download.imagemagick.org/ImageMagick/download/binaries/ImageMagick-$matchHead$matchTail-Q16-HDRI-x64-dll.exe"
            },
            "32bit": {
                "url": "https://download.imagemagick.org/ImageMagick/download/binaries/ImageMagick-$matchHead$matchTail-Q16-HDRI-x86-dll.exe"
            }
        },
        "hash": {
            "mode": "rdf",
            "url": "https://www.imagemagick.org/download/binaries/digest.rdf"
        }
    }
}
